// Jest Snapshot v1, https://goo.gl/fbAQLP

exports[`test App renders correctly 1`] = `
<div
  className="App"
>
  <div
    className="App-alert  "
    onClick={[Function]}
    testid="APP_ALERT"
  >
    <span>
      
    </span>
  </div>
  <header
    className="App-header"
  >
    <img
      alt="logo"
      className="App-logo"
      src="file.svg"
    />
    <h1
      className="App-title"
    >
      Upload a file below
    </h1>
  </header>
  <div
    className="App-body"
  >
    <div
      aria-disabled={false}
      className="App-dropzone"
      onClick={[Function]}
      onDragEnter={[Function]}
      onDragLeave={[Function]}
      onDragOver={[Function]}
      onDragStart={[Function]}
      onDrop={[Function]}
      style={
        Object {
          "position": "relative",
        }
      }
    >
      <p
        className="App-dropzone-text"
      >
        Drop a file here
      </p>
      <input
        accept={undefined}
        autoComplete="off"
        disabled={false}
        multiple={true}
        onChange={[Function]}
        style={
          Object {
            "bottom": 0,
            "left": 0,
            "opacity": 0.00001,
            "pointerEvents": "none",
            "position": "absolute",
            "right": 0,
            "top": 0,
          }
        }
        type="file"
      />
    </div>
  </div>
</div>
`;
